…
## What is mean total number of steps taken per day?

#### 1. Calculate the total number of steps taken per day

```r
total_steps_per_day <-  activity_na_filtered %>% 
  mutate(date = as.Date(date)) %>%
  group_by(date) %>% 
  summarize(total_steps = sum(steps))
print(total_steps_per_day)
```

```
## # A tibble: 53 x 2
##    date       total_steps
##    <date>           <int>
##  1 2012-10-02         126
##  2 2012-10-03       11352
##  3 2012-10-04       12116
##  4 2012-10-05       13294
##  5 2012-10-06       15420
##  6 2012-10-07       11015
##  7 2012-10-09       12811
##  8 2012-10-10        9900
##  9 2012-10-11       10304
## 10 2012-10-12       17382
## # ... with 43 more rows
```
…
#### 4. Make a histogram of the total number of steps taken each day and Calculate and report the mean and median total number of steps taken per day. Do these values differ from the estimates from the first part of the assignment? What is the impact of imputing missing data on the estimates of the total daily number of steps?

Total number of steps taken per day

```r
total_steps_per_day_na_replaced <-  activity_na_replaced %>% 
  mutate(date = as.Date(date)) %>%
  group_by(date) %>% 
  summarize(total_steps = sum(steps))
print(total_steps_per_day)
```

```
## # A tibble: 53 x 2
##    date       total_steps
##    <date>           <int>
##  1 2012-10-02         126
##  2 2012-10-03       11352
##  3 2012-10-04       12116
##  4 2012-10-05       13294
##  5 2012-10-06       15420
##  6 2012-10-07       11015
##  7 2012-10-09       12811
##  8 2012-10-10        9900
##  9 2012-10-11       10304
## 10 2012-10-12       17382
## # ... with 43 more rows
```
…
